<?xml version="1.0" encoding="utf-8"?>
<!-- Generator: Adobe Illustrator 19.1.0, SVG Export Plug-In . SVG Version: 6.00 Build 0)  -->
<svg version="1.1" id="Layer_1" xmlns="http://www.w3.org/2000/svg" xmlns:xlink="http://www.w3.org/1999/xlink" x="0px" y="0px"
	 viewBox="-387 388 185 185" style="enable-background:new -387 388 185 185;" xml:space="preserve">
<style type="text/css">
	.st0{fill:#F7E5DF;}
	.st1{fill:none;stroke:#365170;stroke-width:4;stroke-miterlimit:10;}
	.st2{fill:#77CDD5;}
	.st3{fill:#CC3333;}
	.st4{fill:#365170;}
	.st5{fill:none;stroke:#365170;stroke-width:4.1333;stroke-miterlimit:10;}
</style>
<g>
	<circle class="st0" cx="-294.5" cy="480.5" r="69.3"/>
	<circle class="st1" cx="-294.5" cy="480.5" r="90"/>
	<g>
		<rect x="-331.7" y="419.8" class="st2" width="74.5" height="7.8"/>
		<rect x="-331.7" y="533.5" class="st2" width="74.5" height="7.8"/>
		<path class="st3" d="M-325.8,533.5h62.7c0,0-3.9-25.5-31.4-25.5S-325.8,533.5-325.8,533.5z"/>
		<path class="st3" d="M-310.2,533.5h47c0,0-3.9-25.5-31.4-25.5C-304.3,508-310.2,533.5-310.2,533.5z"/>
		<rect x="-331.7" y="419.8" class="st4" width="74.5" height="7.8"/>
		<rect x="-331.7" y="533.5" class="st4" width="74.5" height="7.8"/>
		<path class="st3" d="M-323.9,453.1c7.2,16,23.5,27.4,23.5,27.4h2c0,0-7.8-17.6-7.8-27.4H-323.9z"/>
		<path class="st3" d="M-265.1,453.1h-41.1c0,9.8,7.8,27.4,7.8,27.4h9.8C-288.6,480.5-272.3,469.1-265.1,453.1z"/>
		<g>
			<path class="st5" d="M-263.1,533.5v-9.8c0-31.4-25.5-41.1-25.5-41.1v-3.9c0,0,25.5-9.8,25.5-41.1v-9.8"/>
			<path class="st5" d="M-325.8,427.6v9.8c0,31.4,25.5,41.1,25.5,41.1v3.9c0,0-25.5,9.8-25.5,41.1v9.8"/>
		</g>
		<rect x="-296.4" y="484.5" class="st3" width="3.9" height="3.9"/>
		<rect x="-296.4" y="492.3" class="st3" width="3.9" height="3.9"/>
		<rect x="-296.4" y="500.1" class="st3" width="3.9" height="3.9"/>
	</g>
</g>
</svg>
