<?xml version="1.0" encoding="utf-8"?>
<!-- Generator: Adobe Illustrator 19.2.1, SVG Export Plug-In . SVG Version: 6.00 Build 0)  -->
<svg version="1.1" id="icons_-_round" xmlns="http://www.w3.org/2000/svg" xmlns:xlink="http://www.w3.org/1999/xlink" x="0px"
	 y="0px" viewBox="0 0 40.2 40.2" style="enable-background:new 0 0 40.2 40.2;" xml:space="preserve">
<style type="text/css">
	.st0{fill:#1087C9;}
	.st1{fill:#FFFFFF;}
</style>
<g>
	<g id="linkedin">
		<path class="st0" d="M20.1,40.2C9,40.2,0,31.2,0,20.1C0,9,9,0,20.1,0s20.1,9,20.1,20.1C40.2,31.2,31.2,40.2,20.1,40.2z M20.1,1
			C9.6,1,1,9.6,1,20.1c0,10.5,8.6,19.1,19.1,19.1s19.1-8.6,19.1-19.1C39.2,9.6,30.6,1,20.1,1z"/>
	</g>
	<g id="linkedin_1_">
		<path class="st1" d="M15.3,27.9H12V17.3h3.3V27.9z M13.6,16L13.6,16c-1.2,0-2-0.8-2-1.8c0-1,0.8-1.8,2-1.8c1.2,0,2,0.8,2,1.8
			C15.6,15.2,14.8,16,13.6,16z M28.6,27.9h-3.8v-5.5c0-1.4-0.6-2.4-1.9-2.4c-1,0-1.5,0.7-1.8,1.3c-0.1,0.2-0.1,0.5-0.1,0.9v5.7h-3.7
			c0,0,0-9.7,0-10.6h3.7V19c0.2-0.7,1.4-1.8,3.3-1.8c2.4,0,4.2,1.5,4.2,4.8V27.9z"/>
	</g>
</g>
</svg>
