<?xml version="1.0" encoding="utf-8"?>
<!-- Generator: Adobe Illustrator 19.2.1, SVG Export Plug-In . SVG Version: 6.00 Build 0)  -->
<svg version="1.1" id="Layer_1" xmlns="http://www.w3.org/2000/svg" xmlns:xlink="http://www.w3.org/1999/xlink" x="0px" y="0px"
	 viewBox="0 0 25.3 25.3" style="enable-background:new 0 0 25.3 25.3;" xml:space="preserve">
<style type="text/css">
	.st0{fill:#42C3FF;}
	.st1{fill-rule:evenodd;clip-rule:evenodd;fill:none;}
</style>
<g>
	<path class="st0" d="M18.7,7.7C18.2,8,17.6,8.2,17,8.3c-0.5-0.5-1.2-0.8-1.9-0.8c-1.4,0-2.6,1.2-2.6,2.6c0,0.2,0,0.4,0.1,0.6
		C10.4,10.6,8.5,9.6,7.2,8C7,8.4,6.9,8.8,6.9,9.3c0,0.9,0.5,1.7,1.2,2.2c-0.4,0-0.8-0.1-1.2-0.3v0c0,1.3,0.9,2.3,2.1,2.5
		c-0.2,0.1-0.4,0.1-0.7,0.1c-0.2,0-0.3,0-0.5,0c0.3,1,1.3,1.8,2.4,1.8c-0.9,0.7-2,1.1-3.2,1.1c-0.2,0-0.4,0-0.6,0
		c1.2,0.7,2.5,1.2,4,1.2c4.8,0,7.4-4,7.4-7.4c0-0.1,0-0.2,0-0.3c0.5-0.4,0.9-0.8,1.3-1.3c-0.5,0.2-1,0.3-1.5,0.4
		C18.1,8.8,18.5,8.3,18.7,7.7"/>
	<path class="st0" d="M12.7,1c6.4,0,11.7,5.2,11.7,11.7c0,6.4-5.2,11.7-11.7,11.7C6.2,24.3,1,19.1,1,12.7C1,6.2,6.2,1,12.7,1
		 M12.7,0C5.7,0,0,5.7,0,12.7c0,7,5.7,12.7,12.7,12.7c7,0,12.7-5.7,12.7-12.7C25.3,5.7,19.7,0,12.7,0"/>
</g>
<path class="st1" d="M-918.6-182.5h2040v428h-2040V-182.5z"/>
</svg>
